module gitlab.com/castaneai/misc/go/cloud-logging-tail

go 1.19

require (
	cloud.google.com/go/logging v1.6.1
	google.golang.org/genproto v0.0.0-20221201164419-0e50fba7f41c
)

require (
	cloud.google.com/go v0.105.0 // indirect
	cloud.google.com/go/compute v1.12.1 // indirect
	cloud.google.com/go/compute/metadata v0.2.1 // indirect
	cloud.google.com/go/longrunning v0.3.0 // indirect
	github.com/golang/groupcache v0.0.0-20200121045136-8c9f03a8e57e // indirect
	github.com/golang/protobuf v1.5.2 // indirect
	github.com/google/go-cmp v0.5.9 // indirect
	github.com/googleapis/enterprise-certificate-proxy v0.2.0 // indirect
	github.com/googleapis/gax-go/v2 v2.7.0 // indirect
	go.opencensus.io v0.24.0 // indirect
	golang.org/x/net v0.0.0-20221014081412-f15817d10f9b // indirect
	golang.org/x/oauth2 v0.0.0-20221014153046-6fdb5e3db783 // indirect
	golang.org/x/sys v0.0.0-20220728004956-3c1f35247d10 // indirect
	golang.org/x/text v0.4.0 // indirect
	google.golang.org/api v0.103.0 // indirect
	google.golang.org/appengine v1.6.7 // indirect
	google.golang.org/grpc v1.50.1 // indirect
	google.golang.org/protobuf v1.28.1 // indirect
)
